<svg width="435" height="758" viewBox="0 0 435 758" fill="none" xmlns="http://www.w3.org/2000/svg">
<path d="M439.343 263.276C495.467 177.995 472.115 91.7156 387.448 70.9976L110.458 3.5928C25.8443 -16.958 -20.1055 52.7649 8.50868 158.759L101.67 503.795C130.259 609.751 199.503 626.669 255.763 541.635L439.343 263.276Z" transform="translate(400.358) rotate(42.2188)" fill="url(#paint0_linear)"/>
<defs>
<linearGradient id="paint0_linear" x2="1" gradientUnits="userSpaceOnUse" gradientTransform="matrix(117.751 -717.155 551.229 151.804 -154.751 524.783)">
<stop stop-color="#FFF2F7"/>
<stop offset="1" stop-color="#FFFCFD"/>
</linearGradient>
</defs>
</svg>
