<svg width="601" height="247" viewBox="0 0 601 247" fill="none" xmlns="http://www.w3.org/2000/svg">
<path d="M5.37452 135.091C9.28027 128.802 88.9011 18.2556 94.0175 11.446C97.4268 6.90986 104.345 -3.51161e-07 113.43 -3.51161e-07C121.941 -3.51161e-07 126.962 -3.51161e-07 133.774 -3.51161e-07C142.909 -3.51161e-07 147.67 6.34932 147.67 13.4433C147.67 20.5373 147.67 141.801 147.67 141.801C147.67 141.801 152.721 141.801 159.249 141.801C165.777 141.801 170.885 147.085 170.885 153.613C170.885 160.141 170.885 159.214 170.885 166.026C170.885 172.838 165.776 177.273 159.249 177.273C152.721 177.273 147.67 177.273 147.67 177.273C147.67 177.273 147.67 212.527 147.67 218.487C147.67 225.584 141.37 230.232 135.125 230.232C128.879 230.232 127.128 230.232 122.02 230.232C115.493 230.232 110.06 226.718 110.06 218.487C110.06 210.258 110.06 177.273 110.06 177.273C110.06 177.273 17.7616 177.273 12.0847 177.273C5.51836 177.273 0 173.974 0 166.878C0 161.609 0 154.447 0 150.188C0 145.932 1.46795 141.381 5.37452 135.091ZM110.06 141.801V47.0951L45.0855 141.801H110.06Z" transform="translate(0 7.58055)" fill="url(#paint0_linear)"/>
<path d="M5.3745 135.091C9.28025 128.802 88.9003 18.2556 94.0167 11.446C97.4268 6.90986 104.345 -3.51161e-07 113.429 -3.51161e-07C121.941 -3.51161e-07 126.962 -3.51161e-07 133.774 -3.51161e-07C142.909 -3.51161e-07 147.669 6.34932 147.669 13.4433C147.669 20.5373 147.669 141.801 147.669 141.801C147.669 141.801 152.721 141.801 159.249 141.801C165.777 141.801 170.885 147.085 170.885 153.613C170.885 160.141 170.885 159.214 170.885 166.026C170.885 172.838 165.775 177.273 159.249 177.273C152.721 177.273 147.669 177.273 147.669 177.273C147.669 177.273 147.669 212.527 147.669 218.487C147.669 225.584 141.37 230.232 135.125 230.232C128.879 230.232 127.128 230.232 122.019 230.232C115.493 230.232 110.06 226.718 110.06 218.487C110.06 210.258 110.06 177.273 110.06 177.273C110.06 177.273 17.7608 177.273 12.0838 177.273C5.51835 177.273 -2.4481e-05 173.973 -2.4481e-05 166.878C-2.4481e-05 161.609 -2.4481e-05 154.447 -2.4481e-05 150.188C-2.4481e-05 145.932 1.4671 141.381 5.3745 135.091ZM110.06 141.801V47.0951L45.0839 141.801H110.06Z" transform="translate(429.93 7.58054)" fill="url(#paint1_linear)"/>
<path d="M119.494 3.13537e-09C50.4814 3.13537e-09 5.91957e-06 51.12 5.91957e-06 116.617C5.91957e-06 183.713 50.4814 236.11 119.494 236.11C188.506 236.11 238.987 183.713 238.987 116.617C238.987 51.12 188.506 3.13537e-09 119.494 3.13537e-09ZM119.494 185.677C84.9567 185.677 57.1981 155.981 57.1981 116.602C57.1981 78.8367 84.9567 50.4321 119.494 50.4321C154.032 50.4321 181.788 78.8367 181.788 116.602C181.788 155.981 154.032 185.677 119.494 185.677Z" transform="translate(183.879 5.48302)" fill="url(#paint2_linear)"/>
<path d="M1.60531e-06 56.1912C1.60531e-06 56.1912 119.043 95.5874 153.729 39.9189C175.596 4.82549 99.2326 -6.07314 66.3723 3.09289C44.0277 9.32467 20.5825 23.8989 14.1296 32.6392C5.00712 45.0008 1.60531e-06 56.1912 1.60531e-06 56.1912Z" transform="translate(195.246 12.4019)" fill="url(#paint3_linear)"/>
<path d="M17.5319 5.45622C56.2417 1.28746 98.37 -0.690078 152.163 0.216497C163.863 0.415401 153.569 54.3332 142.314 58.668C95.6387 76.6532 70.1593 89.7135 40.613 97.4214C28.6204 100.551 12.0686 104.509 3.57242 78.3653C-1.99443 61.2365 -0.246211 30.7631 3.33324 14.7102C4.58173 9.11047 9.85845 6.28225 17.5319 5.45622Z" transform="translate(182.254 77.1547)" fill="url(#paint4_linear)"/>
<path d="M55.5778 0.565859C26.8871 -3.71633 -9.9397 15.1253 2.47865 97.7716C15.8619 186.842 72.2496 193.237 84.2685 180.418C103.538 159.863 125.239 120.908 113.387 73.3631C101.538 25.8193 67.0847 2.28367 55.5778 0.565859Z" transform="translate(307.102 21.3514)" fill="url(#paint5_linear)"/>
<path d="M167.932 56.8324C178.21 30.711 181.635 2.44859 175.982 0.0937908C167.983 -3.23909 2.65211 83.225 0.0712906 104.793C-2.50789 126.363 65.5888 130.057 90.4255 123.635C132.255 112.817 155.312 88.9094 167.932 56.8324Z" transform="translate(241.852 114.105)" fill="url(#paint6_linear)"/>
<path d="M133.175 0.483285L132.578 -7.52488e-07C132.478 0.123287 122.327 12.3123 96.2696 13.1811C86.4584 13.5082 74.9236 9.97315 63.7644 6.55479C53.4025 3.37644 43.6118 0.382193 35.5019 0.441371C16.4811 0.586851 0.873705 8.59973 0.717541 8.68274L0.853967 8.94164C0.702734 9.00493 0.546578 9.06493 0.405208 9.12576L0.704372 9.83343C8.43533 6.56137 30.0403 0.91726 63.5523 19.1112C81.2597 28.7293 94.7014 30.1849 108.497 23.9811C116.141 20.543 121.577 15.6855 125.206 11.4756C124.259 15.6838 121.404 25.8378 114.852 32.0129C108.913 37.6068 95.8636 45.4578 75.1677 35.151C71.0227 33.0847 66.7644 30.7718 62.2578 28.3184C46.029 19.4967 27.9699 9.67068 10.0143 9.19315C6.79891 9.10767 3.57863 9.32384 0.380552 9.89589L0.393695 9.97315C0.154517 9.99617 0.0164315 10.0167 -6.82256e-06 10.02L0.122473 10.7762C0.337816 10.7408 21.9526 7.63644 53.6786 35.4271C71.6063 51.1315 93.6255 57.3953 108.467 51.0066C127.265 42.914 127.662 25.7803 124.93 16.9299L124.434 17.0844C125.499 13.8838 126.048 11.2882 126.252 10.2148C129.625 6.01973 131.115 2.74191 131.144 2.67534L130.98 2.60137C132.445 1.35781 133.149 0.51534 133.175 0.483285ZM108.163 50.2981C96.0337 55.5238 74.6375 52.7688 54.1833 34.851C31.6364 15.0945 14.0918 10.8321 5.60465 10.0529C24.7964 8.8348 44.4132 19.4918 61.8896 28.9964C66.406 31.4499 70.6685 33.7685 74.8266 35.8389C95.94 46.3521 109.296 38.3047 115.378 32.5701C119.863 28.343 122.65 22.3159 124.293 17.506C126.833 26.2011 126.224 42.5285 108.163 50.2981ZM125.776 9.58603L125.59 9.55808C125.588 9.56959 125.569 9.68959 125.532 9.89013C121.992 14.2529 116.382 19.5945 108.182 23.2808C94.6307 29.3745 81.3929 27.9271 63.9189 18.4397C35.8323 3.18904 15.992 4.56411 5.58657 7.36602C11.5307 4.98246 22.7351 1.30521 35.5069 1.20904C43.4992 1.14658 53.2348 4.13096 63.54 7.28877C74.7608 10.7285 86.3614 14.2742 96.2943 13.9479C114.401 13.3447 124.967 7.29699 129.854 3.51534C129.165 4.7852 127.842 6.99534 125.776 9.58603Z" transform="translate(248.242 81.4397)" fill="url(#paint7_linear)"/>
<path d="M6.81785 11.1179C6.81785 11.1179 0.308267 8.28308 0.0131982 5.44829C-0.282692 2.61267 4.45075 -0.222121 8.59239 0.013769C12.734 0.251303 18.3559 3.0861 19.8354 8.28391C21.314 13.4817 6.81785 11.1179 6.81785 11.1179Z" transform="translate(325.391 74.7142)" fill="#2130FA"/>
<path d="M-1.80597e-06 6.06576C-1.80597e-06 6.06576 3.81863 15.5934 6.26055 22.131C6.99945 24.111 8.46905 23.926 9.56713 22.9586C17.8381 15.674 26.6186 7.87726 29.9269 4.25425C31.7285 2.28082 30.4718 1.72355 28.0364 2.8356C18.9 7.00848 8.66302 11.9712 8.66302 11.9712L5.82739 3.61194e-06L-1.80597e-06 6.06576Z" transform="translate(371.301 210.404)" fill="#E843F4"/>
<path d="M2.23009 1.83434C8.62461 -1.11635 30.5813 -0.370882 31.5265 3.0935C32.4717 6.55953 -10.0559 7.50557 2.23009 1.83434Z" transform="translate(351.113 240.073)" fill="url(#paint8_linear)"/>
<path d="M4.10157 16.8281C-0.938428 18.5829 -0.49542 23.2933 1.02924 25.0547C2.55389 26.8169 14.0961 32.3057 28.4879 26.5161C39.763 21.9799 52.515 10.261 55.3703 6.78348C56.1586 5.82102 58.6128 3.34211 58.049 2.53088C57.4819 1.71965 55.949 0.925676 55.2125 0.324032C54.4761 -0.275146 53.1808 -0.0170632 52.1854 0.881293C48.6717 4.04157 37.5265 12.0701 25.6029 15.624C12.9471 19.3958 9.14322 15.0758 4.10157 16.8281Z" transform="translate(342.867 63.1223)" fill="url(#paint9_linear)"/>
<path d="M30.3039 1.50498e-06C30.3039 1.50498e-06 29.2831 13.3734 29.1927 15.9123C29.1022 18.4521 29.3529 21.2753 26.3053 19.0151C23.2576 16.7573 5.68169 3.10603 3.62032 1.34959C1.60005 -0.369863 0.95812 1.90356 0.497846 3.84164C0.037572 5.78219 -0.0314585 7.62247 0.0104593 9.65425C0.063884 12.2688 1.4036 13.5518 2.44004 14.7378C6.95402 19.9085 25.5409 37.0775 31.9321 42.2342C35.9809 45.503 38.8148 44.9425 40.1726 38.8907C41.288 33.9247 47.4918 4.79424 47.4918 4.79424L30.3039 1.50498e-06Z" transform="translate(293.148 135.682)" fill="url(#paint10_linear)"/>
<path d="M14.0604 28.0848C11.6884 28.9092 3.46508 16.5377 2.30207 12.3714C1.73084 10.3224 -0.484224 3.28756 0.0960497 1.81222C1.41441 -1.53627 16.6338 0.184002 16.6922 3.49715C16.7506 6.81441 18.9689 26.3826 14.0604 28.0848Z" transform="translate(323.582 136.379)" fill="url(#paint11_linear)"/>
<path d="M21.4186 0.945374C21.4186 0.945374 39.7177 7.53798 43.0235 9.14072C46.3284 10.7443 47.6057 14.4248 48.5969 18.4489C49.5873 22.4706 65.018 99.1728 65.1585 100.742C65.3838 103.273 60.7958 106.391 60.4325 105.468C57.3618 97.6711 31.2775 31.2355 30.1547 27.9988C28.8783 24.3174 25.9712 23.6246 24.0314 23.1659C22.0933 22.7057 6.78676 17.7446 3.19498 16.4854C-0.395979 15.2221 -0.279259 12.998 0.326495 9.14977C0.932248 5.29908 1.58813 1.99907 2.72402 0.555786C3.86238 -0.891612 21.4186 0.945374 21.4186 0.945374Z" transform="translate(315.121 121.871)" fill="url(#paint12_linear)"/>
<path d="M10.5988 5.2118C10.2922 4.12276 9.54346 2.83235 8.54072 1.34139C7.59387 -0.0673753 5.51852 -1.04874 4.8092 2.02194C4.08099 5.18139 1.26593 14.4272 0.0848333 19.1507C-0.257084 20.5184 0.439074 21.7496 2.09277 19.6241C4.38592 16.6743 8.66729 9.86879 8.66729 9.86879C8.66729 9.86879 10.9046 6.30249 10.5988 5.2118Z" transform="translate(281.316 129.982)" fill="url(#paint13_linear)"/>
<path d="M0.000917147 18.0475C0.223657 12.5727 0.958442 0.410802 2.58584 0.026966C4.21159 -0.354404 17.5637 3.41244 18.3486 4.78916C20.41 8.40149 18.6675 15.4486 17.1445 17.0053C15.6215 18.5645 -0.137987 21.4519 0.000917147 18.0475Z" transform="translate(318.402 104.407)" fill="url(#paint14_linear)"/>
<path d="M23.2849 31.2844C23.2849 31.2844 29.5742 22.0353 32.2191 10.8803C32.6794 8.94219 33.6895 1.72905 30.6246 0.932609C26.0917 -0.245199 15.0476 -0.536163 10.7934 1.42082C7.31418 3.02685 4.78105 20.6003 2.9416 28.3543C2.3153 30.9918 1.03473 33.2011 0.104316 35.5633C-1.44253 39.497 14.6087 43.0477 21.9369 43.6592C26.6038 44.0488 23.2849 31.2844 23.2849 31.2844Z" transform="translate(314.844 79.2126)" fill="#2130FA"/>
<path d="M6.15296 1.68473C6.15296 1.68473 0.669131 11.5066 0.0452951 13.0576C-0.57854 14.6086 5.40091 19.0428 8.23653 15.8932C9.84749 14.1031 14.6705 5.36775 15.1587 2.242C15.531 -0.138278 5.85461 -1.0654 6.15296 1.68473Z" transform="translate(331.09 66.0635)" fill="url(#paint15_linear)"/>
<path d="M5.40854 0.0148528C7.50526 -0.408435 11.448 8.33512 8.85321 11.1732C6.48526 13.7696 0.333193 14.9368 0.0192199 11.4075C-0.294753 7.87896 3.31101 0.441428 5.40854 0.0148528Z" transform="translate(339.215 86.7271)" fill="#2130FA"/>
<path d="M1.16385e-05 -4.51493e-06C1.16385e-05 -4.51493e-06 0.334521 3.76357 0.717534 5.39179C1.04219 6.77179 1.72767 8.2422 5.07452 9.03699C12.3452 10.7597 23.9005 11.7855 29.7173 13.1647C33.0082 13.9455 34.0578 16.0233 34.4951 20.6474C37.3373 50.7542 49.6833 75.7447 49.6833 75.7447" transform="translate(312.637 128.741)" stroke="url(#paint16_linear)" stroke-width="1.1035" stroke-miterlimit="10" stroke-linecap="round" stroke-linejoin="round"/>
<path d="M-7.22389e-06 3.61194e-06C-7.22389e-06 3.61194e-06 7.56081 7.40383 18.5852 14.0194" transform="translate(305.148 162.836)" stroke="#2130FA" stroke-width="1.1035" stroke-miterlimit="10" stroke-linecap="round" stroke-linejoin="round"/>
<path d="M2.33917 1.35448e-06C1.57808 0.149591 0.798072 0.282741 -1.00332e-05 0.399454" transform="translate(357.574 95.0318)" stroke="#2130FA" stroke-width="1.1035" stroke-miterlimit="10" stroke-linecap="round" stroke-linejoin="round"/>
<path d="M21.2153 -5.51825e-07C17.2249 4.73918 10.5485 10.2789 -8.82919e-06 12.9485" transform="translate(362.535 81.4964)" stroke="#2130FA" stroke-width="1.1035" stroke-miterlimit="10" stroke-linecap="round" stroke-linejoin="round"/>
<path d="M5.90399 1.44285C5.90399 1.44285 3.23276 5.25162 0.941256 3.84121C-1.35189 2.4308 0.830289 0.290522 4.41549 0.0275083C7.99659 -0.23304 5.90399 1.44285 5.90399 1.44285Z" transform="translate(262.938 59.9207)" fill="url(#paint17_linear)"/>
<path d="M38.9002 13.0468C33.017 15.4255 2.69067 6.80354 0.218343 4.87039C-2.25399 2.93642 16.9978 -0.0455009 21.1978 0.000526546C25.3961 0.0465539 44.1655 10.9172 38.9002 13.0468Z" transform="translate(289.059 163.047)" fill="url(#paint18_linear)"/>
<path d="M76.2185 10.359C81.6933 2.59603 65.6395 -7.19959 44.0584 7.92863C39.2527 11.2977 30.3341 11.8393 25.8883 9.86261C21.7401 8.02069 7.48474 5.65192 9.47706 12.0374C5.47926 13.8243 4.68447 15.1673 2.96009 17.2886C0.923377 19.7906 -0.428688 22.867 0.124463 25.6369C1.22748 31.1503 9.73268 30.8355 9.73268 22.3319C14.9765 19.9664 33.9152 30.7344 38.125 32.7325C42.3357 34.7281 57.5174 37.4067 64.1412 29.2262C64.142 29.2253 86.7883 24.2807 76.2185 10.359Z" transform="translate(272.105 42.3801)" fill="url(#paint19_linear)"/>
<path d="M29.6582 4.87194C30.8154 6.16646 26.885 20.7308 18.0634 18.478C15.8154 17.9043 13.5749 16.0303 12.8327 13.027C7.82637 4.76509 0.0567889 13.8728 0.00172041 10.996C-0.226773 -1.13546 22.3316 -3.30779 29.6582 4.87194Z" transform="translate(303.824 43.7322)" fill="url(#paint20_linear)"/>
<path d="M0.356312 11.3726C-1.99684 5.05615 7.83249 0.0934066 14.3659 0.00135181C20.684 -0.0849496 20.873 3.97943 22.0549 6.9334C23.0601 9.44847 24.141 13.1948 24.9686 16.226C25.4856 18.123 26.1243 20.1005 24.4401 20.7687C16.8818 23.7745 3.93823 20.9833 0.356312 11.3726Z" transform="translate(323.258 51.357)" fill="url(#paint21_linear)"/>
<path d="M13.4295 1.09162C17.0476 -0.892492 21.3265 -0.0302998 21.7933 2.53573C22.2577 5.1034 23.2736 23.1001 10.1377 24.7448C-1.59268 26.2152 -2.85679 17.0919 4.86512 13.2396C4.79115 7.08011 9.81144 3.07408 13.4295 1.09162Z" transform="translate(316.273 45.0048)" fill="url(#paint22_linear)"/>
<path d="M-6.42123e-06 -2.40796e-06C-6.42123e-06 -2.40796e-06 1.26081 1.29945 3.74465 1.54191C4.79506 1.64383 6.03122 1.58383 7.24109 1.14986" transform="translate(339.484 66.7167)" stroke="url(#paint23_linear)" stroke-width="1.1035" stroke-miterlimit="10" stroke-linecap="round" stroke-linejoin="round"/>
<path d="M4.32455 -1.75581e-06C4.32455 -1.75581e-06 13.876 9.58685 12.2971 14.9449C11.1818 18.7348 3.77468 16.8912 1.32536 14.2619C-1.9393 10.7573 1.51113 2.14931 4.32455 -1.75581e-06Z" transform="translate(324.09 60.9164)" fill="url(#paint24_linear)"/>
<path d="M1.08976 0.418188C4.28619 -1.45167 5.30619 3.36394 5.45085 6.65983C2.88236 8.08586 -2.23901 2.36531 1.08976 0.418188Z" transform="translate(329.242 61.5939)" fill="white"/>
<path d="M17.317 3.52521C15.323 9.37233 4.50494 7.83863 1.08358e-05 1.20398e-06C4.03234 2.40411 19.3891 -2.55699 17.317 3.52521Z" transform="translate(278.195 47.4978)" fill="url(#paint25_linear)"/>
<path d="M0.482526 3.15214C0.249923 3.02228 0.0740559 2.79378 0.0181655 2.51351C-0.0829304 2.00228 0.24829 1.50337 0.760345 1.40228C1.35788 1.28228 1.48281 0.887755 1.50747 0.768577C1.61185 0.266385 2.09679 -0.0747105 2.5998 0.0140567C3.10282 0.100358 3.44719 0.560632 3.37404 1.06365C3.27705 1.73187 2.69514 2.94255 1.12939 3.25488C0.899253 3.30091 0.670745 3.25899 0.482526 3.15214Z" transform="translate(256.203 75.6295)" fill="#E843F4"/>
<path d="M24.2729 1.5499C28.1014 -0.10709 34.8913 -1.36791 35.4855 2.87565C36.0781 7.11921 29.0384 12.5661 22.4129 15.7913C13.7639 20.0011 6.9765 22.0921 1.30609 22.7233C-1.38323 23.0225 0.779235 16.4521 1.62088 15.7913C6.23923 12.1559 18.5433 4.02305 24.2729 1.5499Z" transform="translate(293.051 80.1044)" fill="url(#paint26_linear)"/>
<path d="M4.9933 33.2101C3.55002 35.6208 -1.20559 23.0808 0.286189 18.5274C0.853312 16.7931 13.7887 1.12982 14.4503 0.460781C15.9454 -1.04333 19.0037 1.45119 19.178 3.40324C19.4303 6.22817 7.19522 29.5353 4.9933 33.2101Z" transform="translate(290.734 75.8255)" fill="url(#paint27_linear)"/>
<path d="M15.951 -4.51493e-07C15.951 -4.51493e-07 4.51643 6.55398 -9.23052e-06 19.7655" transform="translate(285.984 79.9323)" stroke="url(#paint28_linear)" stroke-width="1.1035" stroke-miterlimit="10" stroke-linecap="round" stroke-linejoin="round"/>
<path d="M1.0079 7.52296C0.141594 5.39666 -1.27375 1.69474 2.38871 0.119124C3.75885 -0.469369 5.81448 1.14323 6.51064 4.49994C7.01365 6.92706 7.57419 11.4098 5.26214 12.0887C3.68488 12.5547 2.03365 10.0421 1.0079 7.52296Z" transform="translate(303.352 68.8028)" fill="white"/>
<path d="M8.4715 0.460454C9.54574 1.43854 5.81096 4.10402 3.66576 6.48758C2.46494 6.66182 0.574531 5.7947 1.10365e-05 4.82483C0.373984 2.54566 6.50629 -1.33544 8.4715 0.460454Z" transform="translate(304.965 67.0264)" fill="white"/>
<path d="M7.90966 0.112591C8.61075 1.07423 0.689126 5.0893 0.0611808 4.09396C-0.781285 2.75588 7.34746 -0.660834 7.90966 0.112591Z" transform="translate(306.719 71.5348)" fill="white"/>
<path d="M0.119345 7.03167C-0.779011 4.32181 3.6314 -0.157646 5.42975 0.00427158C6.88537 0.1366 2.69358 3.47523 2.69358 6.94947C2.69358 7.93002 0.818796 9.14071 0.119345 7.03167Z" transform="translate(303.367 65.7483)" fill="white"/>
<path d="M4.21393e-06 21.0117C4.21393e-06 21.0117 12.9945 15.5788 14.0581 4.59138C14.5636 -0.629444 8.89808 0.0264459 8.89808 0.0264459C8.89808 0.0264459 12.2877 0.337953 10.3964 5.30069C8.14438 11.2103 0.000831951 11.9147 0.000831951 11.9147" transform="translate(325.23 46.7283)" stroke="url(#paint29_linear)" stroke-width="1.1035" stroke-miterlimit="10" stroke-linecap="round" stroke-linejoin="round"/>
<path d="M16.8526 55.0093C17.0392 57.0369 -5.3696 -4.52799 1.20985 0.266255C4.58794 2.73283 15.9723 45.4117 16.8526 55.0093Z" transform="translate(359.836 138.748)" fill="url(#paint30_linear)"/>
<path d="M3.70556 0.132148C0.377615 4.36913 -1.62129 20.2757 1.71816 20.2297C5.00666 20.1878 5.30172 -1.90045 3.70556 0.132148Z" transform="translate(280.031 130.589)" fill="url(#paint31_linear)"/>
<path d="M2.88738 9.53152e-07C2.88738 9.53152e-07 3.72081 1.35288 2.69999 1.74986C1.43013 2.24548 -1.24411e-05 0.293427 -1.24411e-05 0.293427" transform="translate(338.605 58.9594)" stroke="#230356" stroke-width="1.1035" stroke-miterlimit="10" stroke-linecap="round" stroke-linejoin="round"/>
<path d="M3.24231 1.70798C19.6018 -4.93805 27.4009 9.67812 28.1152 13.6998C28.8294 17.723 -11.4955 7.69154 3.24231 1.70798Z" transform="translate(331.551 229.92)" fill="url(#paint32_linear)"/>
<path d="M1.36358 3.75857C9.07153 -2.66308 17.3162 0.687891 17.2052 2.56597C17.0934 4.44488 -5.7197 9.65994 1.36358 3.75857Z" transform="translate(337.652 240.084)" fill="url(#paint33_linear)"/>
<path d="M-1.18392e-05 2.65879e-06C-1.18392e-05 2.65879e-06 0.376444 1.49342 2.09261 1.49178" transform="translate(343.91 58.5682)" stroke="#230356" stroke-width="1.1035" stroke-miterlimit="10" stroke-linecap="round" stroke-linejoin="round"/>
<path d="M4.68797 4.88042C6.55044 5.0596 3.32112 -0.395445 0.811805 0.0229108C-1.69504 0.441267 2.17537 4.63878 4.68797 4.88042Z" transform="translate(348.395 223.459)" fill="url(#paint34_linear)"/>
<path d="M6.31154 -1.70564e-06C6.31154 -1.70564e-06 13.5863 1.65288 11.9318 6.94439C10.2789 12.2359 -0.632006 15.2121 0.0288159 9.58931C0.689637 3.96904 2.67373 0.993697 6.31154 -1.70564e-06Z" transform="translate(329.68 88.131)" fill="#2130FA"/>
<path d="M2.56722 0.136174C2.079 -0.375881 0.283912 0.666312 0.0282951 1.43563C-0.0678693 1.7233 0.0644764 2.42769 0.682559 2.53618C0.977627 2.59125 1.38447 2.53453 1.93269 2.28878C2.64858 1.96494 3.099 0.690147 2.56722 0.136174Z" transform="translate(345.52 61.2849)" fill="white"/>
<path d="M12.5097 0.894622C17.0779 6.53626 0.668304 7.52667 0.0584414 6.03489C-0.88923 3.71955 9.96503 -2.24839 12.5097 0.894622Z" transform="translate(323.359 229.177)" fill="url(#paint35_linear)"/>
<path d="M6.01991e-06 1.30431e-06L1.26083 2.83398" transform="translate(364.371 208.673)" stroke="#E843F4" stroke-width="1.1035" stroke-miterlimit="10" stroke-linecap="round" stroke-linejoin="round"/>
<path d="M12.1989 2.3578e-06L13.0652 0.378084L11.3079 4.40219L6.8967 2.80685L5.36795 6.56712L1.80986 5.36055L0.879457 7.74986L-1.20398e-06 7.40794L1.2567 4.17534L4.82714 5.38767L6.36492 1.60767L10.7959 3.2137L12.1989 2.3578e-06Z" transform="translate(377.637 99.6304)" fill="url(#paint36_linear)"/>
<path d="M4.76383 2.18383C6.20712 1.81972 7.48603 1.06356 8.55535 -3.11029e-06L8.83151 1.09398C7.79918 2.18055 6.53835 2.96712 5.06465 3.33698C3.38548 3.75863 1.70382 3.6937 0.273688 3.2474L7.62521e-06 2.15343C1.60193 2.55453 3.23836 2.5652 4.76383 2.18383Z" transform="translate(269.789 106.33)" fill="#E843F4"/>
<path d="M0.84575 4.73836L2.09671 2.82164L3.61194e-06 1.45561L0.594243 0.544112L2.69015 1.91014L3.93534 5.01659e-07L4.81068 0.572055L3.56466 2.48055L5.65069 3.84L5.05645 4.75151L2.9704 3.39041L1.72027 5.31041L0.84575 4.73836Z" transform="translate(313.555 196.426)" fill="#E843F4"/>
<path d="M0.167672 -5.01659e-06L6.06741 0.876168L5.90384 2.03342L-7.42455e-06 1.1589L0.167672 -5.01659e-06Z" transform="translate(366.527 113.24)" fill="#E843F4"/>
<path d="M1.17781 2.35562C1.8283 2.35562 2.35561 1.8283 2.35561 1.17781C2.35561 0.527324 1.8283 0 1.17781 0C0.527329 0 -5.81925e-06 0.527324 -5.81925e-06 1.17781C-5.81925e-06 1.8283 0.527329 2.35562 1.17781 2.35562Z" transform="translate(266.402 159.426)" fill="url(#paint37_linear)"/>
<path d="M1.17699 2.35398C1.82702 2.35398 2.35398 1.82702 2.35398 1.17698C2.35398 0.526952 1.82702 4.4146e-06 1.17699 4.4146e-06C0.526959 4.4146e-06 0 0.526952 0 1.17698C0 1.82702 0.526959 2.35398 1.17699 2.35398Z" transform="translate(269.863 155.974)" fill="url(#paint38_linear)"/>
<path d="M-4.21393e-06 -6.7724e-07L2.82411 0.0419176" transform="translate(378.941 22.3471)" stroke="#5D4AF7" stroke-width="1.1035" stroke-miterlimit="10" stroke-linecap="round" stroke-linejoin="round"/>
<path d="M19.9726 24.2811C21.0214 20.2274 19.292 10.7466 11.9638 4.69479C8.6104 1.92493 2.82574 0.0435613 -1.10365e-05 -3.4489e-07C-1.10365e-05 -3.4489e-07 3.2589 1.78438 4.48685 6.62712C5.17069 9.32384 5.71643 12.4052 8.23808 16.3036C9.68548 18.5441 11.9679 20.437 14.8701 21.9279L19.9726 24.2811Z" transform="translate(387.801 10.0192)" fill="url(#paint39_linear)"/>
<path d="M-5.01659e-06 1.50498e-07C-5.01659e-06 1.50498e-07 6.54246 11.2356 14.7238 11.0014C14.7238 11.0014 12.3189 1.2863 -5.01659e-06 1.50498e-07Z" transform="translate(391.148 24.0066)" fill="url(#paint40_linear)"/>
<path d="M19.8148 18.8215C19.8148 18.8215 23.6063 19.696 26.1625 17.4949C28.7203 15.2938 28.911 9.06119 20.4189 4.06475C15.111 0.939821 6.1915 -0.299631 -4.61526e-06 0.060369C6.20547 2.33955 12.1183 6.95051 14.206 8.74804C20.4797 14.1538 19.8148 18.8215 19.8148 18.8215Z" transform="translate(388.383 17.4342)" fill="url(#paint41_linear)"/>
<path d="M-9.23052e-06 2.88454e-07C1.94711 0.0969866 6.26959 1.85014 8.76658 4.54356C10.3726 6.27123 10.9266 8.69671 10.3192 10.1449C8.86275 13.6274 3.62382 12.1792 2.97204 9.41343C2.4641 7.26247 3.10357 5.39918 2.22741 3.37644C1.68494 2.12795 1.01588 1.11863 -9.23052e-06 2.88454e-07Z" transform="translate(400.742 21.766)" fill="url(#paint42_linear)"/>
<path d="M0.0414471 2.08608C-0.489512 3.6428 4.20035 7.21156 7.28911 7.61759C11.9724 8.23978 15.597 7.24279 15.957 5.18882C16.3154 3.13321 13.1181 0.780055 9.08417 0.217863C5.04774 -0.345973 0.703091 0.152934 0.0414471 2.08608Z" transform="translate(397.645 32.8027)" fill="url(#paint43_linear)"/>
<path d="M10.1957 4.04468C9.58175 11.2241 2.71463 43.925 0.616273 42.4422C-1.36373 41.0441 1.98805 9.06496 2.81983 2.28825C2.24367 1.50742 1.73407 0.109342 3.77818 0.00906811C5.70064 -0.0846305 8.27654 0.555643 9.39024 1.56742C9.93517 2.06304 10.3083 2.7403 10.1957 4.04468Z" transform="translate(399.926 36.577)" fill="url(#paint44_linear)"/>
<path d="M2.40796e-06 0.527821C2.86274 1.19111 4.63234 3.1522 6.03042 4.58152C8.09672 6.69056 10.283 6.51056 10.8016 5.3459C11.6359 3.46289 9.80631 1.71303 7.56166 0.853301C5.317 -0.0072474 2.12137 -0.385329 2.40796e-06 0.527821Z" transform="translate(379.992 16.2557)" fill="url(#paint45_linear)"/>
<path d="M-5.01659e-06 0.122667C1.27808 1.92924 3.00739 2.24732 3.97068 3.75554C4.67917 2.75198 2.6778 -0.688566 -5.01659e-06 0.122667Z" transform="translate(382.414 8.26912)" fill="url(#paint46_linear)"/>
<path d="M1.80597e-06 -2.50829e-07C1.80597e-06 -2.50829e-07 8.51425 1.35288 10.8863 5.58493C11.4699 6.62548 9.22766 6.64027 7.37752 6.01233C3.70026 4.76219 1.80597e-06 -2.50829e-07 1.80597e-06 -2.50829e-07Z" transform="translate(387.117 24.8178)" fill="url(#paint47_linear)"/>
<path d="M0.0142916 3.53385C0.342237 1.21933 6.31758 1.9385 11.0814 0.283981C13.7222 -0.635745 13.7321 0.896311 12.4647 1.78809C9.62992 3.77713 -0.430366 6.68426 0.0142916 3.53385Z" transform="translate(394.211 66.0875)" fill="#E843F4"/>
<path d="M1.14217 5.19938C-0.863309 3.14541 0.19366 1.70212 1.129 0.858834C2.06517 0.0204783 5.00518 -0.301715 7.42655 0.336915C10.4356 1.12842 9.09175 2.98349 7.72326 4.76294C7.14709 5.515 4.2482 8.37774 1.14217 5.19938Z" transform="translate(398.281 61.7343)" fill="#E843F4"/>
<path d="M9.05957 2.81573C9.05957 2.81573 8.35437 4.37573 7.24643 5.09327C6.14095 5.80587 1.89656 8.24614 0.858475 8.35874C-0.178785 8.46888 -0.436062 3.64176 0.990788 2.1582C2.41517 0.672171 6.7886 -0.19331 8.22531 0.0368271C9.66203 0.26943 9.05957 2.81573 9.05957 2.81573Z" transform="translate(396.34 62.5292)" fill="#E843F4"/>
<path d="M1.36273 -9.53151e-07L3.00995e-06 0.941917" transform="translate(390.539 37.6159)" stroke="#6F17A6" stroke-width="1.2373" stroke-miterlimit="10" stroke-linecap="round" stroke-linejoin="round"/>
<path d="M-1.22406e-05 1.63039e-07C-1.22406e-05 1.63039e-07 0.579446 1.6611 0.475062 3.79315" transform="translate(409.551 19.0208)" stroke="#FE3A81" stroke-width="1.2373" stroke-miterlimit="10" stroke-linecap="round" stroke-linejoin="round"/>
<path d="M4.10627 0.0251644C2.28162 0.294753 0.86053 1.83503 0.29916 3.83969C-0.344402 6.12791 0.107641 7.04928 1.10874 7.76106C2.36298 8.65202 3.60573 9.0112 4.77285 7.30243C5.87258 5.69311 5.20191 4.72572 5.6252 3.56846C6.3041 1.70846 7.59451 3.62188 8.91204 2.68736C10.232 1.75613 5.93093 -0.24689 4.10627 0.0251644Z" transform="translate(395.289 57.9241)" fill="#E843F4"/>
<path d="M4.33118 0.0274518C5.48351 0.108 7.49884 0.542797 6.97939 2.00828C6.3909 3.66444 5.53774 5.30499 3.67281 5.40033C2.18349 5.47759 0.368707 4.99019 0.0678853 3.82307C-0.169649 2.89595 0.240497 1.78882 0.919401 1.13458C2.15721 -0.05474 3.29228 -0.0465208 4.33118 0.0274518Z" transform="translate(401.148 62.0421)" fill="#E843F4"/>
<path d="M9.1533 1.89199C8.53193 3.21446 4.8366 4.2435 1.5629 4.21884C-0.487784 4.20323 -0.509981 1.76706 1.43468 1.09391C2.93221 0.576924 10.733 -1.47869 9.1533 1.89199Z" transform="translate(400.988 59.4584)" fill="#E843F4"/>
<path d="M0.0240132 0C0.0240132 0 13.7385 10.089 8.53167 11.22C3.32236 12.3493 -0.332699 4.75808 0.0240132 0Z" transform="translate(365.797)" fill="url(#paint48_linear)"/>
<path d="M0.0298205 5.58618C0.646259 8.07413 26.6953 9.68509 21.2854 3.49687C14.7578 -3.97108 -0.770727 2.35769 0.0298205 5.58618Z" transform="translate(310.105 26.9527)" fill="url(#paint49_linear)"/>
<defs>
<linearGradient id="paint0_linear" x2="1" gradientUnits="userSpaceOnUse" gradientTransform="translate(130.619 21.6195) scale(168.295) rotate(58.1342)">
<stop stop-color="#47E9D9"/>
<stop offset="1" stop-color="#47E9D9" stop-opacity="0"/>
</linearGradient>
<linearGradient id="paint1_linear" x2="1" gradientUnits="userSpaceOnUse" gradientTransform="translate(130.619 21.6197) scale(168.295) rotate(58.1342)">
<stop stop-color="#47E9D9"/>
<stop offset="1" stop-color="#47E9D9" stop-opacity="0"/>
</linearGradient>
<linearGradient id="paint2_linear" x2="1" gradientUnits="userSpaceOnUse" gradientTransform="translate(0.000493151 -1.43885) scale(238.987)">
<stop stop-color="#47E9D9"/>
<stop offset="1" stop-color="#47E9D9" stop-opacity="0"/>
</linearGradient>
<linearGradient id="paint3_linear" x2="1" gradientUnits="userSpaceOnUse" gradientTransform="translate(70.1462 189.707) scale(168.852) rotate(-120.964)">
<stop stop-color="#5D4AF7"/>
<stop offset="0.0175" stop-color="#5D4FF7" stop-opacity="0.9825"/>
<stop offset="0.1538" stop-color="#5B74F7" stop-opacity="0.8462"/>
<stop offset="0.2967" stop-color="#5A93F6" stop-opacity="0.7033"/>
<stop offset="0.4462" stop-color="#59AAF6" stop-opacity="0.5538"/>
<stop offset="0.605" stop-color="#59BBF6" stop-opacity="0.395"/>
<stop offset="0.7795" stop-color="#58C5F6" stop-opacity="0.2205"/>
<stop offset="1" stop-color="#58C8F6" stop-opacity="0"/>
</linearGradient>
<linearGradient id="paint4_linear" x2="1" gradientUnits="userSpaceOnUse" gradientTransform="translate(-5.47237 97.5811) scale(66.5244) rotate(-57.2068)">
<stop stop-color="#58C8F6"/>
<stop offset="0.5494" stop-color="#5ED9F9" stop-opacity="0.4506"/>
<stop offset="1" stop-color="#61E2FA" stop-opacity="0"/>
</linearGradient>
<linearGradient id="paint5_linear" x2="1" gradientUnits="userSpaceOnUse" gradientTransform="translate(25.7886 -36.3309) scale(111.341) rotate(51.4108)">
<stop stop-color="white"/>
<stop offset="1" stop-color="white" stop-opacity="0"/>
</linearGradient>
<linearGradient id="paint6_linear" x2="1" gradientUnits="userSpaceOnUse" gradientTransform="translate(-9.56716 -134.794) scale(227.994) rotate(30.8014)">
<stop stop-color="#5D4AF7"/>
<stop offset="0.2087" stop-color="#5B72F7" stop-opacity="0.7913"/>
<stop offset="0.4426" stop-color="#5A97F6" stop-opacity="0.5574"/>
<stop offset="0.6601" stop-color="#59B2F6" stop-opacity="0.3399"/>
<stop offset="0.8526" stop-color="#58C2F6" stop-opacity="0.1474"/>
<stop offset="1" stop-color="#58C8F6" stop-opacity="0"/>
</linearGradient>
<linearGradient id="paint7_linear" x2="1" gradientUnits="userSpaceOnUse" gradientTransform="translate(103.187 80.9748) scale(109.051) rotate(-165.586)">
<stop stop-color="#47E9D9"/>
<stop offset="1" stop-color="#47E9D9" stop-opacity="0"/>
</linearGradient>
<linearGradient id="paint8_linear" x2="1" gradientUnits="userSpaceOnUse" gradientTransform="translate(19.1559 0.312469) scale(9.06397) rotate(57.8041)">
<stop stop-color="#2130FA"/>
<stop offset="1" stop-color="#E843F4"/>
</linearGradient>
<linearGradient id="paint9_linear" x2="1" gradientUnits="userSpaceOnUse" gradientTransform="translate(0.000451429 -14.5139) scale(58.1322)">
<stop stop-color="#2130FA"/>
<stop offset="0.1987" stop-color="#4F34F9"/>
<stop offset="0.69" stop-color="#BC3FF5"/>
<stop offset="0.9086" stop-color="#E843F4"/>
</linearGradient>
<linearGradient id="paint10_linear" x2="1" gradientUnits="userSpaceOnUse" gradientTransform="translate(50.9244 54.1913) scale(65.2351) rotate(178.34)">
<stop stop-color="#1C005B"/>
<stop offset="1" stop-color="#2130FA"/>
</linearGradient>
<linearGradient id="paint11_linear" x2="1" gradientUnits="userSpaceOnUse" gradientTransform="translate(16.4353 -1.15323) scale(21.2556) rotate(60.6198)">
<stop stop-color="#1C005B"/>
<stop offset="1" stop-color="#2484C6" stop-opacity="0"/>
</linearGradient>
<linearGradient id="paint12_linear" x2="1" gradientUnits="userSpaceOnUse" gradientTransform="translate(61.7072 -24.272) scale(103.159) rotate(61.6658)">
<stop stop-color="#2130FA"/>
<stop offset="0.0304" stop-color="#2E31FA"/>
<stop offset="0.1609" stop-color="#5F36F8"/>
<stop offset="0.2948" stop-color="#893AF7"/>
<stop offset="0.4299" stop-color="#AB3DF6"/>
<stop offset="0.5666" stop-color="#C640F5"/>
<stop offset="0.7056" stop-color="#D942F4"/>
<stop offset="0.8482" stop-color="#E443F4"/>
<stop offset="1" stop-color="#E843F4"/>
</linearGradient>
<linearGradient id="paint13_linear" x2="1" gradientUnits="userSpaceOnUse" gradientTransform="translate(-0.000240966 5.07208) scale(10.6279)">
<stop stop-color="#1C005B"/>
<stop offset="1" stop-color="#2130FA"/>
</linearGradient>
<linearGradient id="paint14_linear" x2="1" gradientUnits="userSpaceOnUse" gradientTransform="translate(30.3452 -11.3326) scale(34.1057) rotate(98.7663)">
<stop stop-color="#FF78D4"/>
<stop offset="1" stop-color="white"/>
</linearGradient>
<linearGradient id="paint15_linear" x2="1" gradientUnits="userSpaceOnUse" gradientTransform="translate(15.381 -25.0008) scale(33.7652) rotate(73.272)">
<stop stop-color="#FF78D4"/>
<stop offset="1" stop-color="white"/>
</linearGradient>
<linearGradient id="paint16_linear" x2="1" gradientUnits="userSpaceOnUse" gradientTransform="translate(1.15542 18.0635) scale(43.6682) rotate(-5.09432)">
<stop stop-color="#2130FA"/>
<stop offset="1" stop-color="#FF97F4"/>
</linearGradient>
<linearGradient id="paint17_linear" x2="1" gradientUnits="userSpaceOnUse" gradientTransform="translate(5.9779 0.0803572) scale(4.7956) rotate(101.075)">
<stop stop-color="#230356"/>
<stop offset="1" stop-color="#5E0377"/>
</linearGradient>
<linearGradient id="paint18_linear" x2="1" gradientUnits="userSpaceOnUse" gradientTransform="translate(64.2421 25.8423) scale(44.4327) rotate(174.906)">
<stop stop-color="#FF97F4"/>
<stop offset="1" stop-color="#FF97F4" stop-opacity="0"/>
</linearGradient>
<linearGradient id="paint19_linear" x2="1" gradientUnits="userSpaceOnUse" gradientTransform="translate(-3.71139 -16.9813) scale(79.3985) rotate(-5.09432)">
<stop stop-color="#1C005B"/>
<stop offset="1" stop-color="#5E0377"/>
</linearGradient>
<linearGradient id="paint20_linear" x2="1" gradientUnits="userSpaceOnUse" gradientTransform="translate(-1.34939 -4.12761) scale(30.2174) rotate(-5.09432)">
<stop stop-color="#6F17A6"/>
<stop offset="1" stop-color="#2484C6" stop-opacity="0"/>
</linearGradient>
<linearGradient id="paint21_linear" x2="1" gradientUnits="userSpaceOnUse" gradientTransform="translate(32.8293 -63.795) scale(73.4078) rotate(77.3232)">
<stop stop-color="#FE3A81"/>
<stop offset="1" stop-color="white"/>
</linearGradient>
<linearGradient id="paint22_linear" x2="1" gradientUnits="userSpaceOnUse" gradientTransform="translate(-1.58515 2.05572) scale(23.2789) rotate(-5.09432)">
<stop stop-color="#230356"/>
<stop offset="1" stop-color="#5E0377"/>
</linearGradient>
<linearGradient id="paint23_linear" x2="1" gradientUnits="userSpaceOnUse" gradientTransform="translate(-0.717731 -2.94475) scale(8.01731) rotate(-5.09432)">
<stop offset="0.1559" stop-color="white"/>
<stop offset="0.871" stop-color="#E843F4"/>
</linearGradient>
<linearGradient id="paint24_linear" x2="1" gradientUnits="userSpaceOnUse" gradientTransform="translate(-0.671964 3.08553) scale(12.1793) rotate(-5.09432)">
<stop stop-color="#230356"/>
<stop offset="1" stop-color="#5E0377"/>
</linearGradient>
<linearGradient id="paint25_linear" x2="1" gradientUnits="userSpaceOnUse" gradientTransform="matrix(-10.4042 2.41277 -3.22412 -13.9021 17.9746 8.13937)">
<stop stop-color="#61E2FA"/>
<stop offset="1" stop-color="#61E2FA" stop-opacity="0"/>
</linearGradient>
<linearGradient id="paint26_linear" x2="1" gradientUnits="userSpaceOnUse" gradientTransform="translate(-0.000110381 -6.39419) scale(35.5207)">
<stop stop-color="#E843F4"/>
<stop offset="1" stop-color="#2130FA"/>
</linearGradient>
<linearGradient id="paint27_linear" x2="1" gradientUnits="userSpaceOnUse" gradientTransform="translate(-2.35912 22.9771) scale(21.0362) rotate(-83.0633)">
<stop stop-color="#2130FA"/>
<stop offset="0.0606" stop-color="#3341FA"/>
<stop offset="0.3196" stop-color="#7B84FC"/>
<stop offset="0.5522" stop-color="#B4B9FD"/>
<stop offset="0.7503" stop-color="#DDDFFE"/>
<stop offset="0.9059" stop-color="#F6F6FF"/>
<stop offset="1" stop-color="white"/>
</linearGradient>
<linearGradient id="paint28_linear" x2="1" gradientUnits="userSpaceOnUse" gradientTransform="translate(-11.2444 10.7872) scale(26.2974) rotate(-49.5873)">
<stop stop-color="#2130FA"/>
<stop offset="1" stop-color="#2130FA" stop-opacity="0"/>
</linearGradient>
<linearGradient id="paint29_linear" x2="1" gradientUnits="userSpaceOnUse" gradientTransform="translate(-0.453288 3.00775) scale(14.9968)">
<stop stop-color="#230356"/>
<stop offset="0.1206" stop-color="#25065D"/>
<stop offset="0.2941" stop-color="#2C0E70"/>
<stop offset="0.4995" stop-color="#381C8F"/>
<stop offset="0.7293" stop-color="#472FBA"/>
<stop offset="0.9766" stop-color="#5B48F1"/>
<stop offset="1" stop-color="#5D4AF7"/>
</linearGradient>
<linearGradient id="paint30_linear" x2="1" gradientUnits="userSpaceOnUse" gradientTransform="translate(26.1668 6.79854) scale(41.666) rotate(81.2376)">
<stop stop-color="#61E2FA"/>
<stop offset="1" stop-color="#61E2FA" stop-opacity="0"/>
</linearGradient>
<linearGradient id="paint31_linear" x2="1" gradientUnits="userSpaceOnUse" gradientTransform="translate(-2.76183 8.1065) scale(8.79831) rotate(-27.6584)">
<stop stop-color="#FF97F4"/>
<stop offset="1" stop-color="#FF97F4" stop-opacity="0"/>
</linearGradient>
<linearGradient id="paint32_linear" x2="1" gradientUnits="userSpaceOnUse" gradientTransform="translate(-17.7283 -20.0292) scale(52.0143) rotate(2.08255)">
<stop stop-color="#E843F4"/>
<stop offset="1" stop-color="#2130FA"/>
</linearGradient>
<linearGradient id="paint33_linear" x2="1" gradientUnits="userSpaceOnUse" gradientTransform="translate(26.1129 19.9768) scale(42.3472) rotate(163.793)">
<stop stop-color="#2130FA"/>
<stop offset="1" stop-color="#E843F4"/>
</linearGradient>
<linearGradient id="paint34_linear" x2="1" gradientUnits="userSpaceOnUse" gradientTransform="translate(2.2909 -6.73222) scale(15.7231) rotate(27.4923)">
<stop stop-color="#2130FA"/>
<stop offset="1" stop-color="#E843F4"/>
</linearGradient>
<linearGradient id="paint35_linear" x2="1" gradientUnits="userSpaceOnUse" gradientTransform="matrix(-13.4449 0.792156 -0.606279 -10.2879 13.6286 8.09516)">
<stop stop-color="#61E2FA"/>
<stop offset="1" stop-color="white" stop-opacity="0"/>
</linearGradient>
<linearGradient id="paint36_linear" x2="1" gradientUnits="userSpaceOnUse" gradientTransform="matrix(-1.09206 -9.761 14.0849 -3.05844 -1.85608 -6.62264)">
<stop stop-color="#5028FF"/>
<stop offset="0.0825" stop-color="#7631F8"/>
<stop offset="0.1873" stop-color="#A03BF0"/>
<stop offset="0.2946" stop-color="#C243EA"/>
<stop offset="0.4031" stop-color="#DD49E5"/>
<stop offset="0.5135" stop-color="#F04DE2"/>
<stop offset="0.6267" stop-color="#FB50E0"/>
<stop offset="0.7473" stop-color="#FF51DF"/>
<stop offset="1" stop-color="#FE3A81"/>
</linearGradient>
<linearGradient id="paint37_linear" x2="1" gradientUnits="userSpaceOnUse" gradientTransform="translate(-4.49397 -0.512477) scale(4.4497) rotate(-141.307)">
<stop stop-color="#5028FF"/>
<stop offset="0.0825" stop-color="#7631F8"/>
<stop offset="0.1873" stop-color="#A03BF0"/>
<stop offset="0.2946" stop-color="#C243EA"/>
<stop offset="0.4031" stop-color="#DD49E5"/>
<stop offset="0.5135" stop-color="#F04DE2"/>
<stop offset="0.6267" stop-color="#FB50E0"/>
<stop offset="0.7473" stop-color="#FF51DF"/>
<stop offset="1" stop-color="#FE3A81"/>
</linearGradient>
<linearGradient id="paint38_linear" x2="1" gradientUnits="userSpaceOnUse" gradientTransform="translate(-4.49374 -0.513275) scale(4.4497) rotate(-141.307)">
<stop stop-color="#5028FF"/>
<stop offset="0.0825" stop-color="#7631F8"/>
<stop offset="0.1873" stop-color="#A03BF0"/>
<stop offset="0.2946" stop-color="#C243EA"/>
<stop offset="0.4031" stop-color="#DD49E5"/>
<stop offset="0.5135" stop-color="#F04DE2"/>
<stop offset="0.6267" stop-color="#FB50E0"/>
<stop offset="0.7473" stop-color="#FF51DF"/>
<stop offset="1" stop-color="#FE3A81"/>
</linearGradient>
<linearGradient id="paint39_linear" x2="1" gradientUnits="userSpaceOnUse" gradientTransform="translate(28.1036 4.05143) scale(-27.587 27.587) rotate(-21.8983)">
<stop stop-color="#FCAE25"/>
<stop offset="1" stop-color="#FFE705" stop-opacity="0"/>
</linearGradient>
<linearGradient id="paint40_linear" x2="1" gradientUnits="userSpaceOnUse" gradientTransform="translate(18.9257 0.549716) scale(-17.7651 17.7651) rotate(-21.8983)">
<stop stop-color="#FFE705"/>
<stop offset="1" stop-color="#FFE705" stop-opacity="0"/>
</linearGradient>
<linearGradient id="paint41_linear" x2="1" gradientUnits="userSpaceOnUse" gradientTransform="translate(33.7042 -0.0425401) scale(-31.2343 31.2343) rotate(-21.8984)">
<stop stop-color="#FFE705"/>
<stop offset="1" stop-color="#FFE705" stop-opacity="0"/>
</linearGradient>
<linearGradient id="paint42_linear" x2="1" gradientUnits="userSpaceOnUse" gradientTransform="translate(12.0134 6.95457) scale(-10.6872 10.6872) rotate(-61.2965)">
<stop stop-color="#ED1C24"/>
<stop offset="1" stop-color="#FFE705" stop-opacity="0"/>
</linearGradient>
<linearGradient id="paint43_linear" x2="1" gradientUnits="userSpaceOnUse" gradientTransform="translate(16.2949 5.99003) scale(8.43023) rotate(164.892)">
<stop offset="0.1828" stop-color="#2130FA"/>
<stop offset="0.326" stop-color="#3E33F9"/>
<stop offset="0.6381" stop-color="#8A3AF7"/>
<stop offset="1" stop-color="#E843F4"/>
</linearGradient>
<linearGradient id="paint44_linear" x2="1" gradientUnits="userSpaceOnUse" gradientTransform="translate(14.9583 25.1486) scale(19.8725 -19.8725) rotate(88.9628)">
<stop offset="0.086" stop-color="#E843F4"/>
<stop offset="0.1935" stop-color="#D942F4"/>
<stop offset="0.4019" stop-color="#B03EF6"/>
<stop offset="0.6904" stop-color="#6F37F8"/>
<stop offset="1" stop-color="#2130FA"/>
</linearGradient>
<linearGradient id="paint45_linear" x2="1" gradientUnits="userSpaceOnUse" gradientTransform="translate(-1.10954 4.67271) scale(10.4394 -10.4394) rotate(-27.264)">
<stop stop-color="#FFE705"/>
<stop offset="1" stop-color="#FFE705" stop-opacity="0"/>
</linearGradient>
<linearGradient id="paint46_linear" x2="1" gradientUnits="userSpaceOnUse" gradientTransform="translate(5.11503 0.0876422) scale(-4.88614 4.88614) rotate(-16.8041)">
<stop stop-color="#FFE705"/>
<stop offset="1" stop-color="#FFE705" stop-opacity="0"/>
</linearGradient>
<linearGradient id="paint47_linear" x2="1" gradientUnits="userSpaceOnUse" gradientTransform="translate(-1.86537 5.72783) scale(11.0504 -11.0504) rotate(-27.2638)">
<stop stop-color="#FFE705"/>
<stop offset="1" stop-color="#FFE705" stop-opacity="0"/>
</linearGradient>
<linearGradient id="paint48_linear" x2="1" gradientUnits="userSpaceOnUse" gradientTransform="translate(-0.451048 -5.59782) scale(14.5552) rotate(34.8492)">
<stop stop-color="#FFE705"/>
<stop offset="1" stop-color="#FFE705" stop-opacity="0"/>
</linearGradient>
<linearGradient id="paint49_linear" x2="1" gradientUnits="userSpaceOnUse" gradientTransform="translate(14.8035 -8.35406) scale(-19.9168 19.9169) rotate(27.7105)">
<stop stop-color="#61E2FA"/>
<stop offset="1" stop-color="white" stop-opacity="0"/>
</linearGradient>
</defs>
</svg>
