<svg width="20" height="20" viewBox="0 0 20 20" fill="none" xmlns="http://www.w3.org/2000/svg">
<path d="M8.85738 14.1085L3.83776 16.4922C3.45978 16.6875 3.20923 16.5086 3.28187 16.095L4.03845 10.6711L0.179236 6.71859C-0.126718 6.42599 -0.0312995 6.13641 0.391619 6.07596L5.91911 5.07786L8.51326 0.282019C8.70225 -0.0940064 9.0119 -0.0940064 9.20089 0.282019L11.8067 5.08572L17.3225 6.07596C17.7454 6.13641 17.8409 6.42538 17.5355 6.71859L13.6689 10.6922L14.4329 16.095C14.5049 16.5092 14.255 16.6875 13.877 16.4922L8.85738 14.1085Z" transform="translate(1.14307 1.71436)" fill="url(#paint0_linear)"/>
<mask id="mask0" mask-type="alpha" maskUnits="userSpaceOnUse" x="1" y="1" width="18" height="18">
<path d="M8.85738 14.1085L3.83776 16.4922C3.45978 16.6875 3.20923 16.5086 3.28187 16.095L4.03845 10.6711L0.179236 6.71859C-0.126718 6.42599 -0.0312995 6.13641 0.391619 6.07596L5.91911 5.07786L8.51326 0.282019C8.70225 -0.0940064 9.0119 -0.0940064 9.20089 0.282019L11.8067 5.08572L17.3225 6.07596C17.7454 6.13641 17.8409 6.42538 17.5355 6.71859L13.6689 10.6922L14.4329 16.095C14.5049 16.5092 14.255 16.6875 13.877 16.4922L8.85738 14.1085Z" transform="translate(1.14307 1.71436)" fill="url(#paint1_linear)"/>
</mask>
<g mask="url(#mask0)">
<path d="M0.170434 8.00367C0.787883 5.47789 3.54763 1.15179 8.95446 0.196004C14.3595 -0.757965 17.5741 2.00298 17.792 3.47202C18.2107 6.29886 12.1039 12.1061 4.59661 12.3123C0.825435 12.4156 -0.510422 10.79 0.170434 8.00367Z" transform="translate(1.75391 3.28369)" fill="url(#paint2_linear)"/>
<path d="M13.6698 5.82736C14.1715 8.9861 13.5547 14.3357 9.26272 15.3531C4.96951 16.3706 1.05181 12.7875 0.258916 10.9309C-1.26408 7.35988 4.26833 1.97219 8.06475 0.257105C10.7605 -0.959235 13.1158 2.34701 13.6698 5.82736Z" transform="translate(8.13721 4.10303)" fill="url(#paint3_linear)"/>
<path d="M2.32261 0.154064C4.24945 -0.604637 8.04341 1.53303 11.1183 4.49831C14.1939 7.46299 13.8522 10.736 12.9941 11.54C11.3418 13.0858 4.53386 9.77597 1.24469 7.25805C-1.08905 5.4686 0.198171 0.989543 2.32261 0.154064Z" transform="translate(5.70361 0.73291)" fill="url(#paint4_linear)"/>
</g>
<defs>
<linearGradient id="paint0_linear" x2="1" gradientUnits="userSpaceOnUse" gradientTransform="translate(9.61558e-05 -0.411542) scale(17.7139 17.3957)">
<stop stop-color="#5D4AF7"/>
<stop offset="1" stop-color="#5D4AF7" stop-opacity="0"/>
</linearGradient>
<linearGradient id="paint1_linear" x2="1" gradientUnits="userSpaceOnUse" gradientTransform="translate(9.61558e-05 -0.411542) scale(17.7139 17.3957)">
<stop stop-color="#5D4AF7"/>
<stop offset="1" stop-color="#5D4AF7" stop-opacity="0"/>
</linearGradient>
<linearGradient id="paint2_linear" x2="1" gradientUnits="userSpaceOnUse" gradientTransform="translate(9.93723 22.9368) scale(16.1838 15.893) rotate(-122.87)">
<stop stop-color="#5D4AF7"/>
<stop offset="1" stop-color="#5D4AF7" stop-opacity="0"/>
</linearGradient>
<linearGradient id="paint3_linear" x2="1" gradientUnits="userSpaceOnUse" gradientTransform="translate(-0.205248 15.0459) scale(11.6099 11.4013) rotate(-78.7896)">
<stop stop-color="#5D4AF7"/>
<stop offset="1" stop-color="#5D4AF7" stop-opacity="0"/>
</linearGradient>
<linearGradient id="paint4_linear" x2="1" gradientUnits="userSpaceOnUse" gradientTransform="translate(8.34182 -0.800237) scale(9.45548 9.28561) rotate(64.7231)">
<stop stop-color="#5D4AF7"/>
<stop offset="1" stop-color="#5D4AF7" stop-opacity="0"/>
</linearGradient>
</defs>
</svg>
