<svg width="26" height="14" viewBox="0 0 26 14" version="1.1" xmlns="http://www.w3.org/2000/svg" xmlns:xlink="http://www.w3.org/1999/xlink">
<g transform="translate(-1421 -1139)">
  <g transform="matrix(-1 1.22465e-16 -1.22465e-16 -1 1447 1153)">
    <path fill-rule="evenodd" d="M 0 6.95068L 6.66663 0L 8 1.39014L 3.57837 6L 26 6L 26 8L 3.57837 8L 8 12.6099L 6.66663 14L 0 7.04944L 0.0473633 7L 0 6.95068Z"/>
  </g>
</g>
</svg>
